…
Create a sequential id number for each individual

Reorder the variables to a logical order (id, predictor, outcome)

Include a subset of 16 individuals.

sleepstudy <- as_tibble(sleepstudy) %>%
    mutate(id = rep(1:18, each = 10)) %>%
    dplyr::select(id, Subject, Days, Reaction) %>%
    filter(id <= 16)

The data is structured in a long format, where each row contains all variables at a single measurement instance:

# # A tibble: 160 x 4
#       id Subject  Days Reaction
#    <int> <fct>   <dbl>    <dbl>
#  1     1 308         0     250.
#  2     1 308         1     259.
#  3     1 308         2     251.
#  4     1 308         3     321.
#  5     1 308         4     357.
#  6     1 308         5     415.
#  7     1 308         6     382.
#  8     1 308         7     290.
#  9     1 308         8     431.
# 10     1 308         9     466.
# # ... with 150 more rows
…
