…
d <- add_rownames(d, "id") %>%
    group_by(id) %>%
    mutate(extraversion = mean(c(E1, E2, E3, E4, E5, E6, E7, E8, E9, E10)),
           openness = mean(c(O1, O2, O3, O4, O5, O6, O7, O8, O9, O10)),
           agreeableness = mean(c(A1, A2, A3, A4, A5, A6, A7, A8, A9, A10)),
           neuroticism = mean(c(N1, N2, N3, N4, N5, N6, N7, N8, N9, N10)),
           conscientiousness = mean(c(C1, C2, C3, C4, C5, C6, C7, C8, C9, C10))) %>%
    ungroup()

Then I’ll get rid of variables I won’t be using, and display the output

d <- select(d, -c(id, engnat, hand, source, E1:O10))
d

# # A tibble: 16,845 x 9
#    race    age gender country extraversion openness agreeableness
#    <fct> <dbl> <fct>  <chr>          <dbl>    <dbl>         <dbl>
#  1 cauc…    53 male   United…          3.2      3.1           3.2
#  2 mixe…    14 female Pakist…          2.9      4.1           3.8
#  3 cauc…    19 female Romania          3.6      3.7           3.7
#  4 sout…    25 female United…          2.6      2.2           4  
#  5 cauc…    20 female United…          3.2      2.9           3.7
#  6 cauc…    23 male   India            3.5      3             3.1
#  7 cauc…    39 female United…          3.1      3.7           3.3
#  8 cauc…    18 female United…          2.9      3.3           2.7
#  9 cauc…    17 female Italy            2.9      3.8           2.9
# 10 cauc…    21 female United…          2.5      3.1           2.7
# # ... with 16,835 more rows, and 2 more variables: neuroticism <dbl>,
# #   conscientiousness <dbl>
…
The ggplot2 facetting philosophy

Next, we’ll be drawing the same figure, but display all Big 5 categories using small multiples. ggplot2 calls small multiples “facets”, and the operation is conceptually to subset the input data frame by values found in one of the data frame’s columns.

The key to using facets in ggplot2 is to make sure that the data is in long format; I would like to display histograms of each category in separate facets, so I’ll need to reshape the data from wide (each category in its own column) to long form (a column with category labels, and another with the value). tidyr provides a good tool for the job: gather()

library(tidyr)
ld <- tidyr::gather(d, category, value, extraversion:conscientiousness)
ld

# # A tibble: 84,225 x 6
#    race                    age gender country       category     value
#    <fct>                 <dbl> <fct>  <chr>         <chr>        <dbl>
#  1 caucasian_european       53 male   United States extraversion   3.2
#  2 mixed_race               14 female Pakistan      extraversion   2.9
#  3 caucasian_european       19 female Romania       extraversion   3.6
#  4 south_east_asian         25 female United States extraversion   2.6
#  5 caucasian_middle_east    20 female United States extraversion   3.2
#  6 caucasian_indian         23 male   India         extraversion   3.5
#  7 caucasian_middle_east    39 female United States extraversion   3.1
#  8 caucasian_european       18 female United States extraversion   2.9
#  9 caucasian_european       17 female Italy         extraversion   2.9
# 10 caucasian_european       21 female United States extraversion   2.5
# # ... with 84,215 more rows
…
