…
# Simulate weekdays
weekdays <- filter(d, !grepl("S(at|un)", day))
weekdays$hours <- rpois(nrow(weekdays), lambda = 8)  # Greater lambda
weekdays$na <- rbinom(nrow(weekdays), 1, 0.1)  # Smaller p(missing)
weekdays$hours <- ifelse(weekdays$na, NA, weekdays$hours)

# Concatenate weekends and weekdays and arrange by date
d <- bind_rows(weekends, weekdays) %>% 
    arrange(date) %>%  # Arrange by date
    select(-na)  # Remove na column
d

# # A tibble: 813 x 5
#    date       year   week day   hours
#    <date>     <chr> <dbl> <fct> <int>
#  1 2014-01-02 2014      1 Thu       6
#  2 2014-01-03 2014      1 Fri      13
#  3 2014-01-04 2014      1 Sat      NA
#  4 2014-01-05 2014      1 Sun      NA
#  5 2014-01-06 2014      2 Mon       9
#  6 2014-01-07 2014      2 Tue       5
#  7 2014-01-08 2014      2 Wed      NA
#  8 2014-01-09 2014      2 Thu       9
#  9 2014-01-10 2014      2 Fri       8
# 10 2014-01-11 2014      2 Sat      NA
# # ... with 803 more rows
…
