…
We move on to examining a practical example using the R statistical programming environment (R Core Team 2017). First, we load the tidyverse package (Wickham 2016) which makes R programming much easier:

library(tidyverse)

We’ll use example data from the stdalt package (Wright 2011). The package used to be on CRAN but is no longer maintained, so it must be installed from GitHub:

devtools::install_github("cran/sdtalt")

The example data is called confcontr, and is provided as a data frame: “These are the data from the control group in Skagerberg and Wright’s study of memory conformity. Basically, this is the simplest old/new recognition memory design.” (Skagerberg and Wright 2008).

# install.packages("sdtalt")
library(sdtalt)
data(confcontr)

## # A tibble: 3,100 x 3
##    subno sayold isold
##    <dbl>  <dbl> <dbl>
##  1    53      1     0
##  2    53      1     1
##  3    53      1     1
##  4    53      1     1
##  5    53      1     0
##  6    53      1     1
##  7    53      1     0
##  8    53      0     0
##  9    53      0     1
## 10    53      0     1
## # ... with 3,090 more rows
…
\[d' = \Phi^{-1}(HR) - \Phi^{-1}(FAR)\]

\(\Phi\) is the cumulative normal density function, and is used to convert z scores into probabilities. Its inverse, \(\Phi^{-1}\), converts a proportion (such as a hit rate or false alarm rate) into a z score. From here on, I refer to standardized hit and false alarm rates as zHR and zFAR, respectively. The response criterion c is given by the negative standardized false alarm rate (DeCarlo 1998): -zFAR.

We can use R’s proportion to z-score function (\(\Phi^{-1}\)), qnorm(), to calculate each participant’s d’ and c from the counts of hits, false alarms, misses and correct rejections:

sdt <- sdt %>% 
    mutate(zhr = qnorm(hit / (hit+miss)),
           zfa = qnorm(fa / (fa+cr)),
           dprime = zhr-zfa,
           crit = -zfa)
round(sdt, 2)

## # A tibble: 31 x 9
## # Groups:   subno [31]
##    subno    cr    fa   hit  miss   zhr    zfa dprime  crit
##    <dbl> <dbl> <dbl> <dbl> <dbl> <dbl>  <dbl>  <dbl> <dbl>
##  1    53    33    20    25    22  0.08 -0.31    0.39 0.31 
##  2    54    39    14    28    19  0.24 -0.63    0.87 0.63 
##  3    55    36    17    31    16  0.41 -0.47    0.88 0.47 
##  4    56    43    10    38     9  0.87 -0.88    1.76 0.88 
##  5    57    35    18    29    18  0.3  -0.41    0.71 0.41 
##  6    58    41    12    30    17  0.35 -0.75    1.1  0.75 
##  7    59    46     7    21    26 -0.13 -1.12    0.98 1.12 
##  8    60    38    15    33    14  0.53 -0.570   1.1  0.570
##  9    61    42    11    25    22  0.08 -0.81    0.9  0.81 
## 10    62    45     8    22    25 -0.08 -1.03    0.95 1.03 
## # ... with 21 more rows
…
