…
However, one overarching theme of these blog posts is the idea that we don’t need to summarise data to counts (or cell means, or the like), but can and perhaps should instead work with raw responses, as provided by the experimental program. Working with such trial-level data is, I think, computationally and conceptually easier, especially when we wish to include covariates. Here is the data in the raw trial-level format:

d <- tibble(
    isold = c(rep(0, 174), rep(0, 172), rep(0, 104), rep(0, 92), rep(0, 41), rep(0, 8),
          rep(1, 46), rep(1, 57), rep(1, 66), rep(1, 101), rep(1, 154), rep(1, 173)),
    y = c(rep(1, 174), rep(2, 172), rep(3, 104), rep(4, 92), rep(5, 41), rep(6, 8),
          rep(1, 46), rep(2, 57), rep(3, 66), rep(4, 101), rep(5, 154), rep(6, 173))
)
d

## # A tibble: 1,188 x 2
##    isold     y
##    <dbl> <dbl>
##  1     0     1
##  2     0     1
##  3     0     1
##  4     0     1
##  5     0     1
##  6     0     1
##  7     0     1
##  8     0     1
##  9     0     1
## 10     0     1
## # ... with 1,178 more rows
…
