…
Each value of Tags is a kind of a list, whose individual items are separated by semicolons. What we’d like to have is a variable (column in a data frame) where every item is a single tag, so we need to do some kind of a data unwrapping operation.

The unwrapping can be done by simply splitting the Tags variable on each semicolon (and space) found in each string, but this creates a strange variable:

d %>% 
    select(Tags) %>% 
    mutate(Tags = str_split(Tags, "; ")) 

## # A tibble: 9,653 x 1
##    Tags     
##    <list>   
##  1 <chr [1]>
##  2 <chr [1]>
##  3 <chr [1]>
##  4 <chr [1]>
##  5 <chr [1]>
##  6 <chr [1]>
##  7 <chr [1]>
##  8 <chr [1]>
##  9 <chr [1]>
## 10 <chr [1]>
## # ... with 9,643 more rows
…
## List of 1
##  $ : chr NA

All the tags associated with the first article in our data frame are in a neat list of neat character strings. Brilliant. This data format is quite foreign to us who are used to working with strictly flat rectangular data, but has a certain recursive beauty to it. Now that our list is concrete, we can unlist it to create a Tags variable whose each row is one individual tag.

d %>% 
    select(Tags) %>% 
    mutate(Tags = str_split(Tags, "; ")) %>% 
    unnest(Tags)

## # A tibble: 26,358 x 1
##    Tags 
##    <chr>
##  1 <NA> 
##  2 <NA> 
##  3 <NA> 
##  4 <NA> 
##  5 <NA> 
##  6 <NA> 
##  7 <NA> 
##  8 <NA> 
##  9 <NA> 
## 10 <NA> 
## # ... with 26,348 more rows
…
pd <- d %>% 
    select(`Abbreviated Source Title`, Tags) %>% 
    mutate(Tags = str_split(Tags, "; ")) %>% 
    unnest(Tags) %>% 
    filter(!is.na(Tags)) %>%
    group_by(`Abbreviated Source Title`, Tags) %>%  # Group by unique Tags AND journals
    count() %>%  # And count them
    group_by(`Abbreviated Source Title`) %>% 
    top_n(10, n) %>%  # Select top 10 tags within each journal
    ungroup() %>% 
    arrange(`Abbreviated Source Title`, n) %>%  # Arrange by n within journals
    mutate(order = row_number())  # Will order Tags on this
pd

## # A tibble: 61 x 4
##    `Abbreviated Source Title`  Tags                      n order
##    <chr>                       <chr>                 <int> <int>
##  1 Atten. Percept. Psychophys. Speech perception        37     1
##  2 Atten. Percept. Psychophys. Working memory           39     2
##  3 Atten. Percept. Psychophys. Visual working memory    46     3
##  4 Atten. Percept. Psychophys. Visual attention         48     4
##  5 Atten. Percept. Psychophys. Attentional capture      56     5
##  6 Atten. Percept. Psychophys. Selective attention      58     6
##  7 Atten. Percept. Psychophys. Visual perception        63     7
##  8 Atten. Percept. Psychophys. Eye movements            68     8
##  9 Atten. Percept. Psychophys. Visual search           136     9
## 10 Atten. Percept. Psychophys. Attention               195    10
## # ... with 51 more rows
…
90% of data analysis is data cleaning and manipulation, and network analysis is no exception. The first data manipulation step is to create an adjacency matrix where each row and column is a tag, where the values in the cells are the number of times those tags co-occurred (were present in the same article.) I found this stack overflow answer and this blogpost helpful when preparing the data.

Preparing the adjacency matrix

In order to create the adjacency matrix we need to solve a sequence of smaller problems. First, we’ll take two columns from the data, one for Tags and another one that uniquely identifies each article (doesn’t matter what it is, here we use a created variable called item). Then we unnest the Tags into single tags per row as detailed above, and remove empty tags.

m <- d %>% 
    rownames_to_column("item") %>% 
    select(Tags, item) %>% 
    mutate(Tags = str_split(Tags, "; ")) %>% 
    unnest(Tags) %>% 
    filter(!is.na(Tags))
m

## # A tibble: 21,446 x 2
##    item  Tags                   
##    <chr> <chr>                  
##  1 417   Exogenous cuing        
##  2 417   Perceived duration     
##  3 417   Spatial attention      
##  4 418   Intersensory perception
##  5 418   Synesthetic congruency 
##  6 418   Temporal ventriloquism 
##  7 418   Visual TOJ             
##  8 419   Coordinate systems     
##  9 419   Eye-centered           
## 10 419   Reference frame        
## # ... with 21,436 more rows
…
## # A tibble: 2 x 3
##   item  Tags              occur
##   <chr> <chr>             <dbl>
## 1 417   Spatial attention     1
## 2 419   Saccades              1

Note that occur must be one. To create the matrix we need all the item-tag pairs, even ones that didn’t occur. For these pairs, occur will be zero. The tidyr package in tidyverse provides the perfect helper function for this purpose:

m <- m %>% 
    complete(item, Tags, fill = list(occur=0))
m

## # A tibble: 1,274,021 x 3
##    item  Tags                      occur
##    <chr> <chr>                     <dbl>
##  1 1000  3-D perception                0
##  2 1000  Action                        0
##  3 1000  Action control                0
##  4 1000  Adaptation                    0
##  5 1000  Affect                        0
##  6 1000  Age of acquisition            0
##  7 1000  Aging                         0
##  8 1000  Amygdala                      0
##  9 1000  Animal cognition              0
## 10 1000  Anterior cingulate cortex     0
## # ... with 1,274,011 more rows
…
m <- d %>% 
    rownames_to_column("item") %>% 
    select(Authors, Tags, item) %>% 
    mutate(Authors = str_split(Authors, ", ")) %>% 
    unnest(Authors) %>% 
    filter(!is.na(Tags), !is.na(Authors)) %>% 
    filter(grepl("bayes", Tags, ignore.case = T))
m$occur <- 1
m <- m %>% 
    complete(item, Authors, fill = list(occur=0)) %>% 
    select(-Tags)
m

## # A tibble: 20,678 x 3
##    item  Authors     occur
##    <chr> <chr>       <dbl>
##  1 1234  Adger D.        0
##  2 1234  Annis J.        0
##  3 1234  Arnold D.       0
##  4 1234  Arnold N.R.     0
##  5 1234  Bååth R.        0
##  6 1234  Bakker M.       0
##  7 1234  Bar M.          0
##  8 1234  Barker J.D.     0
##  9 1234  Barr S.         0
## 10 1234  Bartlema A.     0
## # ... with 20,668 more rows
…
